-----BEGIN PGP SIGNATURE-----
Version: GnuPG v1
Comment: See https://invisible-island.net/public/public.html for info

iEYEABECAAYFAltCkmAACgkQcCNT4PfkjtsdgwCgxEb9vOFqxH7bdNJLT87wfV0d
vnYAn0Z22RAmDDEyyQ6bZAZp2+ft+5xt
=kxww
-----END PGP SIGNATURE-----
